Homework 1
…
## integer(0)

Looping through the models

library(knitr)

## Warning: package 'knitr' was built under R version 4.0.5

data

## # A tibble: 1,816 x 15
##    height weight  male  earn earnk ethnicity education mother_education
##     <dbl>  <dbl> <dbl> <dbl> <dbl> <chr>         <dbl>            <dbl>
##  1     74    210     1 50000    50 White            16               16
##  2     66    125     0 60000    60 White            16               16
##  3     64    126     0 30000    30 White            16               16
##  4     65    200     0 25000    25 White            17               17
##  5     63    110     0 50000    50 Other            16               16
##  6     68    165     0 62000    62 Black            18               18
##  7     63    190     0 51000    51 White            17               17
##  8     64    125     0  9000     9 White            15               15
##  9     62    200     0 29000    29 White            12               12
## 10     73    230     1 32000    32 White            17               17
## # ... with 1,806 more rows, and 7 more variables: father_education <dbl>,
## #   walk <dbl>, exercise <dbl>, smokenow <dbl>, tense <dbl>, angry <dbl>,
## #   age <dbl>
…
